Preços de combustível no Brasil
…
# Criando uma tabela com DATAS, PREÇOS e ANOS
tabela <- tibble(DATAS, EST, PREÇOS, COMBUSTÍVEL, ANOS)

# Filtrando as linhas com os anos = 2004 e criando outra tabela apenas com os preços de 2004 
anos_2004 <- tabela %>% filter(ANOS==2004) %>%
  arrange(`DATA INICIAL`)

# Imprimindo a tabela com os preços médios de 2004
anos_2004 

## # A tibble: 4,205 × 5
##    `DATA INICIAL` ESTADO             `PREÇO MÉDIO REVENDA` PRODUTO          ANOS
##    <date>         <chr>                              <dbl> <chr>           <dbl>
##  1 2004-05-09     DISTRITO FEDERAL                    1.29 ETANOL HIDRATA…  2004
##  2 2004-05-09     GOIAS                               1.16 ETANOL HIDRATA…  2004
##  3 2004-05-09     MATO GROSSO                         1.39 ETANOL HIDRATA…  2004
##  4 2004-05-09     MATO GROSSO DO SUL                  1.26 ETANOL HIDRATA…  2004
##  5 2004-05-09     ALAGOAS                             1.18 ETANOL HIDRATA…  2004
##  6 2004-05-09     BAHIA                               1.38 ETANOL HIDRATA…  2004
##  7 2004-05-09     CEARA                               1.45 ETANOL HIDRATA…  2004
##  8 2004-05-09     MARANHAO                            1.63 ETANOL HIDRATA…  2004
##  9 2004-05-09     PARAIBA                             1.28 ETANOL HIDRATA…  2004
## 10 2004-05-09     PERNAMBUCO                          1.22 ETANOL HIDRATA…  2004
## # … with 4,195 more rows
…
for (elem in DATAS)
{
  ANOS <- year(elem)
}

tabela <- tibble(DATAS, EST, PREÇOS, COMBUSTÍVEL, ANOS)
anos_2021 <- tabela %>% filter(ANOS==2021)

anos_2021

## # A tibble: 3,019 × 5
##    `DATA INICIAL` ESTADO           `PREÇO MÉDIO REVENDA` PRODUTO           ANOS
##    <date>         <chr>                            <dbl> <chr>            <dbl>
##  1 2021-01-03     ACRE                              4.04 ETANOL HIDRATADO  2021
##  2 2021-01-03     ALAGOAS                           3.62 ETANOL HIDRATADO  2021
##  3 2021-01-03     AMAZONAS                          3.48 ETANOL HIDRATADO  2021
##  4 2021-01-03     BAHIA                             3.66 ETANOL HIDRATADO  2021
##  5 2021-01-03     CEARA                             3.80 ETANOL HIDRATADO  2021
##  6 2021-01-03     DISTRITO FEDERAL                  3.58 ETANOL HIDRATADO  2021
##  7 2021-01-03     ESPIRITO SANTO                    3.70 ETANOL HIDRATADO  2021
##  8 2021-01-03     GOIAS                             3.30 ETANOL HIDRATADO  2021
##  9 2021-01-03     MARANHAO                          3.83 ETANOL HIDRATADO  2021
## 10 2021-01-03     MATO GROSSO                       3.24 ETANOL HIDRATADO  2021
## # … with 3,009 more rows
anos_2021 %>%
  pull("PREÇO MÉDIO REVENDA") %>%
  mean()

## [1] 16.69207

➞ Podemos perceber que em 17 anos o preço médio dos combustíveis
dobrou.

As informações apenas do estado do Rio de Janeiro (2004-2021):

combustivel_info %>% 
  filter(ESTADO == 'RIO DE JANEIRO')

## # A tibble: 4,819 × 18
##    DATA INICI…¹ DATA FIN…² REGIÃO ESTADO PRODUTO NÚMER…³ UNIDA…⁴ PREÇO…⁵ DESVI…⁶
##    <date>       <date>     <chr>  <chr>  <chr>     <dbl> <chr>     <dbl>   <dbl>
##  1 2004-05-09   2004-05-15 SUDES… RIO D… ETANOL…     952 R$/l       1.10   0.154
##  2 2004-05-16   2004-05-22 SUDES… RIO D… ETANOL…     948 R$/l       1.09   0.157
##  3 2004-05-23   2004-05-29 SUDES… RIO D… ETANOL…     973 R$/l       1.10   0.14 
##  4 2004-05-30   2004-06-05 SUDES… RIO D… ETANOL…     955 R$/l       1.15   0.156
##  5 2004-06-06   2004-06-12 SUDES… RIO D… ETANOL…     966 R$/l       1.16   0.154
##  6 2004-06-13   2004-06-19 SUDES… RIO D… ETANOL…     952 R$/l       1.18   0.16 
##  7 2004-06-20   2004-06-26 SUDES… RIO D… ETANOL…     967 R$/l       1.21   0.165
##  8 2004-06-27   2004-07-03 SUDES… RIO D… ETANOL…     963 R$/l       1.20   0.166
##  9 2004-07-04   2004-07-10 SUDES… RIO D… ETANOL…     976 R$/l       1.21   0.162
## 10 2004-07-11   2004-07-17 SUDES… RIO D… ETANOL…     963 R$/l       1.21   0.163
## # … with 4,809 more rows, 9 more variables: `PREÇO MÍNIMO REVENDA` <dbl>,
## #   `PREÇO MÁXIMO REVENDA` <dbl>, `MARGEM MÉDIA REVENDA` <chr>,
## #   `COEF DE VARIAÇÃO REVENDA` <dbl>, `PREÇO MÉDIO DISTRIBUIÇÃO` <chr>,
## #   `DESVIO PADRÃO DISTRIBUIÇÃO` <chr>, `PREÇO MÍNIMO DISTRIBUIÇÃO` <chr>,
## #   `PREÇO MÁXIMO DISTRIBUIÇÃO` <chr>, `COEF DE VARIAÇÃO DISTRIBUIÇÃO` <chr>,
## #   and abbreviated variable names ¹​`DATA INICIAL`, ²​`DATA FINAL`,
## #   ³​`NÚMERO DE POSTOS PESQUISADOS`, ⁴​`UNIDADE DE MEDIDA`, …
…
# Criando uma tibble com as colunas ANO, REGIÃO e NÚMERO DE POSTOS
DATAS <- combustivel_info['DATA INICIAL']
NUM_POSTOS <- combustivel_info['NÚMERO DE POSTOS PESQUISADOS']
REG <- combustivel_info['REGIÃO']

for (elem in DATAS)
{
  ANO <- year(elem)
}

postos_info <- tibble(ANO, REG, NUM_POSTOS)
postos_info

## # A tibble: 120,823 × 3
##      ANO REGIÃO       `NÚMERO DE POSTOS PESQUISADOS`
##    <dbl> <chr>                                 <dbl>
##  1  2004 CENTRO OESTE                            127
##  2  2004 CENTRO OESTE                            387
##  3  2004 CENTRO OESTE                            192
##  4  2004 CENTRO OESTE                            162
##  5  2004 NORDESTE                                103
##  6  2004 NORDESTE                                408
##  7  2004 NORDESTE                                278
##  8  2004 NORDESTE                                105
##  9  2004 NORDESTE                                125
## 10  2004 NORDESTE                                423
## # … with 120,813 more rows
…
